<svg xmlns="http://www.w3.org/2000/svg" width="24" height="24" viewBox="0 0 24 24">
    <g fill="none" fill-rule="evenodd">
        <path fill="#1E2025" fill-rule="nonzero" d="M14.317 11.924l-5.62-5.217a.67.67 0 0 0-.912.982l4.562 4.235a.74.74 0 0 1 0 1.085l-4.605 4.277a.67.67 0 0 0 .912.982l5.663-5.259a.74.74 0 0 0 0-1.085z"/>
        <path stroke="#1E2025" stroke-linecap="round" d="M17.5 17.744V6.528"/>
    </g>
</svg>
