<svg xmlns="http://www.w3.org/2000/svg" width="16" height="16" viewBox="0 0 16 16">
    <g fill="#000" fill-rule="nonzero">
        <path d="M8 0a8 8 0 1 0 8 8 8.009 8.009 0 0 0-8-8zm0 15.289A7.289 7.289 0 1 1 8 .71 7.289 7.289 0 0 1 8 15.29z"/>
        <path d="M8 5.783C7.999 4.798 7.189 4 6.189 4H4.801a.807.807 0 0 0-.568.232.782.782 0 0 0-.233.56v4.855c0 .195.16.353.358.353a.355.355 0 0 0 .359-.353V7.563H5.98l1.256 2.165a.36.36 0 0 0 .312.177.353.353 0 0 0 .347-.26.348.348 0 0 0-.038-.27L6.753 7.474A1.785 1.785 0 0 0 8 5.783zM6.189 6.858H4.717V4.792a.08.08 0 0 1 .024-.058.083.083 0 0 1 .06-.023h1.388c.401-.016.78.185.985.525.205.34.205.763 0 1.102-.206.34-.584.541-.985.525v-.005zM10.5 7.142a1.305 1.305 0 0 0-.894.376v-.173c0-.19-.136-.345-.303-.345C9.136 7 9 7.155 9 7.345v5.31c0 .19.136.345.303.345.167 0 .303-.155.303-.345v-2.1c.25.24.567.373.894.375.827 0 1.5-.849 1.5-1.898 0-1.05-.673-1.89-1.5-1.89zm0 3.107c-.492 0-.894-.54-.894-1.209 0-.668.402-1.208.894-1.208s.894.54.894 1.208c0 .668-.402 1.2-.894 1.2v.009z"/>
    </g>
</svg>
