<?xml version="1.0" encoding="UTF-8"?>
<svg width="24px" height="16px" viewBox="0 0 24 16" version="1.1" xmlns="http://www.w3.org/2000/svg" xmlns:xlink="http://www.w3.org/1999/xlink">
    <!-- Generator: sketchtool 52.4 (67378) - http://www.bohemiancoding.com/sketch -->
    <title>2ECA687B-7357-4187-BE9D-8049EAD5072B</title>
    <desc>Created with sketchtool.</desc>
    <g id="Login-Page" stroke="none" stroke-width="1" fill="none" fill-rule="evenodd">
        <g id="Login-page-component" transform="translate(-1385.000000, -61.000000)">
            <g id="Eye-thin-hide" transform="translate(1385.000000, 57.000000)">
                <rect id="kotak-bening" fill="#F8E71C" opacity="0" x="0" y="0" width="24" height="24"></rect>
                <path d="M12,17 C8.84996004,17 5.9834049,15.4939053 3.40033458,12.481716 C3.16266023,12.2045574 3.16266001,11.7954704 3.40033407,11.5183115 C5.98339469,8.50610004 8.84995443,7 12,7 C15.15004,7 18.0165951,8.50609467 20.5996654,11.518284 C20.8373398,11.7954426 20.83734,12.2045296 20.5996659,12.4816885 C18.0166053,15.4939 15.1500456,17 12,17 Z M12,8.24 C9.34938646,8.24 6.90707279,9.46716372 4.62750598,11.9999991 C6.90709726,14.5328486 9.34939967,15.76 12,15.76 C14.6506135,15.76 17.0929272,14.5328363 19.372494,12.0000009 C17.0929027,9.46715144 14.6506003,8.24 12,8.24 Z M12,14 C10.8954305,14 10,13.1045695 10,12 C10,10.8954305 10.8954305,10 12,10 C13.1045695,10 14,10.8954305 14,12 C14,13.1045695 13.1045695,14 12,14 Z" id="Shape" fill="#707A89" fill-rule="nonzero"></path>
                <path d="M24,4.912 L0,19" id="Line" stroke="#707A89" stroke-linecap="square"></path>
            </g>
        </g>
    </g>
</svg>