<svg xmlns="http://www.w3.org/2000/svg" width="24" height="24" viewBox="0 0 24 24">
    <path fill="#1E2025" fill-rule="nonzero" d="M12 21a9 9 0 1 1 0-18 9 9 0 0 1 0 18zm0-1.24a7.76 7.76 0 1 0 0-15.52 7.76 7.76 0 0 0 0 15.52zM11.4 10h1.24v7H11.4v-7zm0-3h1.24v1.24H11.4V7z"/>
</svg>
