// Jest Snapshot v1, https://goo.gl/fbAQLP

exports[`Field Select Normal Select Input renders correctly 1`] = `
<div
  className="MuiGrid-root cdx-select  MuiGrid-direction-xs-column"
  data-cy=""
  style={Object {}}
>
  <div
    align="end"
    className="MuiGrid-root label MuiGrid-container MuiGrid-justify-xs-space-between"
  >
    <p
      style={
        Object {
          "color": "#00000000",
        }
      }
    >
      .
    </p>
  </div>
  <div
    className="cdx-react-select css-2b097c-container"
    onKeyDown={[Function]}
  >
    <div
      className="select__control css-yk16xz-control"
      onMouseDown={[Function]}
      onTouchEnd={[Function]}
    >
      <div
        className="select__value-container css-1hwfws3"
      >
        <div
          className="select__placeholder css-1wa3eu0-placeholder"
        >
          Select...
        </div>
        <input
          className="css-62g3xt-dummyInput"
          disabled={false}
          id="react-select-2-input"
          onBlur={[Function]}
          onChange={[Function]}
          onFocus={[Function]}
          readOnly={true}
          tabIndex="0"
          value=""
        />
      </div>
      <div
        className="select__indicators css-1hb7zxy-IndicatorsContainer"
      >
        <span
          className="select__indicator-separator css-1okebmr-indicatorSeparator"
        />
        <img
          className="icon-component"
          src="/assets/icons/drop-down.svg"
        />
      </div>
    </div>
  </div>
</div>
`;

exports[`Field Select Normal Select Input renders correctly 2`] = `
<div
  className="MuiGrid-root cdx-select long  MuiGrid-direction-xs-column"
  data-cy=""
  style={Object {}}
>
  <div
    align="end"
    className="MuiGrid-root label MuiGrid-container MuiGrid-justify-xs-space-between"
  >
    <p
      style={
        Object {
          "color": "#00000000",
        }
      }
    >
      .
    </p>
    <span
      className="optional"
    >
       (optional) 
    </span>
  </div>
  <div
    className="cdx-react-select error-input small css-2b097c-container"
    onKeyDown={[Function]}
  >
    <div
      className="select__control css-yk16xz-control"
      onMouseDown={[Function]}
      onTouchEnd={[Function]}
    >
      <div
        className="select__value-container css-1hwfws3"
      >
        <div
          className="select__placeholder css-1wa3eu0-placeholder"
        >
          Select...
        </div>
        <input
          className="css-62g3xt-dummyInput"
          disabled={false}
          id="react-select-3-input"
          onBlur={[Function]}
          onChange={[Function]}
          onFocus={[Function]}
          readOnly={true}
          tabIndex="0"
          value=""
        />
      </div>
      <div
        className="select__indicators css-1hb7zxy-IndicatorsContainer"
      >
        <span
          className="select__indicator-separator css-1okebmr-indicatorSeparator"
        />
        <img
          className="icon-component"
          src="/assets/icons/drop-down.svg"
        />
      </div>
    </div>
  </div>
  <div
    className=" undefined"
  >
     
    this is error messages
     
  </div>
</div>
`;

exports[`Field Select Select with multiple input renders correctly 1`] = `
<div
  className="MuiGrid-root cdx-select block  MuiGrid-direction-xs-column"
  data-cy=""
  style={Object {}}
>
  <div
    align="end"
    className="MuiGrid-root label MuiGrid-container MuiGrid-justify-xs-space-between"
  >
    <p>
      Autocomplete
       
    </p>
    <span
      className="optional"
    >
       (multiple) 
    </span>
  </div>
  <div
    className="cdx-react-select css-2b097c-container"
    onKeyDown={[Function]}
  >
    <div
      className="select__control css-yk16xz-control"
      onMouseDown={[Function]}
      onTouchEnd={[Function]}
    >
      <div
        className="select__value-container select__value-container--is-multi css-1hwfws3"
      >
        <div
          className="select__placeholder css-bsvsse-placeholder"
        >
          Select...
        </div>
        <input
          className="css-62g3xt-dummyInput"
          disabled={false}
          id="react-select-4-input"
          onBlur={[Function]}
          onChange={[Function]}
          onFocus={[Function]}
          readOnly={true}
          tabIndex="0"
          value=""
        />
      </div>
      <div
        className="select__indicators css-1hb7zxy-IndicatorsContainer"
      >
        <span
          className="select__indicator-separator css-1okebmr-indicatorSeparator"
        />
        <img
          className="icon-component"
          src="/assets/icons/drop-down.svg"
        />
      </div>
    </div>
  </div>
  <div
    className="MuiGrid-root select-multi-container MuiGrid-container"
  />
</div>
`;
