<svg xmlns="http://www.w3.org/2000/svg" width="191" height="51" viewBox="0 0 191 51">
    <g fill="none" fill-rule="evenodd">
        <path fill="#FFF" d="M28.938 36.678a10.975 10.975 0 0 1-9.838 6.095c-6.089 0-11.024-4.94-11.024-11.034 0-6.095 4.935-11.034 11.024-11.034 4.294 0 8.044 2.47 9.838 6.094l7.147-3.56A18.968 18.968 0 0 0 19.1 12.75C8.62 12.75.128 21.25.128 31.739c0 10.488 8.493 18.988 18.972 18.988A18.968 18.968 0 0 0 36.085 40.24l-7.147-3.56zM55.986 12.75c-10.48 0-18.972 8.5-18.972 18.989 0 10.488 8.493 18.988 18.972 18.988 10.48 0 18.972-8.5 18.972-18.988.032-10.457-8.46-18.989-18.972-18.989zm0 30.023c-6.089 0-11.024-4.94-11.024-11.034 0-6.095 4.935-11.034 11.024-11.034 6.089 0 11.024 4.94 11.024 11.034s-4.935 11.034-11.024 11.034zM106.877.24v16.07a18.898 18.898 0 0 0-11.024-3.528c-10.48 0-18.972 8.5-18.972 18.989 0 10.488 8.492 18.988 18.972 18.988 4.102 0 7.915-1.315 11.024-3.528v3.528h7.98V.241h-7.98zM95.853 42.774c-6.09 0-11.025-4.94-11.025-11.034 0-6.095 4.936-11.034 11.025-11.034 6.088 0 11.024 4.94 11.024 11.034s-4.936 11.034-11.024 11.034zM153.761 31.77c0-10.488-8.075-18.988-18.042-18.988-9.967 0-18.042 8.5-18.042 18.989 0 10.488 8.492 18.988 18.971 18.988 5.256 0 9.999-2.117 13.428-5.549l-5.608-5.645a10.992 10.992 0 0 1-7.788 3.24c-4.743 0-8.748-2.983-10.319-7.185l27.4-.866V31.77zm-27.432-4.009c1.474-4.105 5.096-7.024 9.39-7.024 4.262 0 7.916 2.919 9.39 7.024h-18.78z"/>
        <path fill="#AEB9CB" d="M190.872 19.325l-5.64-5.645-12.467 12.51-12.434-12.446-5.64 5.646 12.434 12.413-12.37 12.381 5.64 5.645 12.37-12.38L185.2 49.892l5.64-5.645-12.433-12.445z"/>
        <path fill="#FFF" d="M178.438 31.77l-5.64-5.645-12.435-12.413-5.64 5.613 12.434 12.446-12.402 12.413 5.64 5.645 12.402-12.413z"/>
    </g>
</svg>
