<svg xmlns="http://www.w3.org/2000/svg" width="16" height="16" viewBox="0 0 16 16">
    <path fill="#1E2025" fill-rule="evenodd" d="M8 0c2.213 0 4.1.78 5.66 2.34C15.22 3.9 16 5.787 16 8s-.78 4.1-2.34 5.66C12.1 15.22 10.213 16 8 16s-4.1-.78-5.66-2.34C.78 12.1 0 10.213 0 8s.78-4.1 2.34-5.66C3.9.78 5.787 0 8 0zm2.34 11.483l1.143-1.143L9.143 8l2.34-2.34-1.143-1.143L8 6.857l-2.34-2.34L4.517 5.66 6.857 8l-2.34 2.34 1.143 1.143L8 9.143l2.34 2.34z" opacity=".4"/>
</svg>
